…
## 14         Hispanic      TPR 0.4656085 0.3928890 0.5394236 0.9788495
## 15         Hispanic      FPR 0.1843750 0.1434193 0.2312853 0.8375332
## 16            Other Accuracy 0.7012987 0.6528568 0.7466136 1.0610296
## 17            Other      PPV 0.6222222 0.5138260 0.7223355 1.0709861
## 18            Other      NPV 0.7254237 0.6707004 0.7755549 1.0383943
## 19            Other      TPR 0.4087591 0.3255922 0.4959586 0.8593350
## 20            Other      FPR 0.1370968 0.0968474 0.1862773 0.6227694
x$performance_evaluation$df_auc
##         auc     lower     upper            group
## 1 0.7345038 0.6829754 0.7860321            Other
## 2 0.7235610 0.7059863 0.7411358 African American
## 3 0.6879125 0.6648976 0.7109275  [Ref] Caucasian
## 4 0.6941220 0.6466635 0.7415805         Hispanic
x$performance_evaluation$df_calib
## # A tibble: 36 × 7
##    predicted_midpoint event_rate events total lower upper group           
##                 <dbl>      <dbl>  <dbl> <int> <dbl> <dbl> <fct>           
##  1               0.15      0.175     37   211 0.134 0.225 [Ref] Caucasian 
##  2               0.25      0.239     99   415 0.205 0.276 [Ref] Caucasian 
##  3               0.35      0.356    232   652 0.325 0.388 [Ref] Caucasian 
##  4               0.45      0.443    128   289 0.394 0.493 [Ref] Caucasian 
##  5               0.55      0.524    174   332 0.477 0.570 [Ref] Caucasian 
##  6               0.65      0.732     71    97 0.647 0.803 [Ref] Caucasian 
##  7               0.75      0.710     44    62 0.599 0.801 [Ref] Caucasian 
##  8               0.85      0.786     22    28 0.617 0.898 [Ref] Caucasian 
##  9               0.95      0.882     15    17 0.665 0.975 [Ref] Caucasian 
## 10               0.15      0.203     13    64 0.127 0.306 African American
## # ℹ 26 more rows
…
